<svg width="18" height="14" viewBox="0 0 18 14" fill="none" xmlns="http://www.w3.org/2000/svg">
<path d="M17.1 0.00592537C17.0233 -0.00197512 16.946 -0.00197512 16.8694 0.00592537H1.11935C1.01841 0.00748076 0.918134 0.0226166 0.821228 0.0509253L8.94935 8.1453L17.1 0.00592537Z" fill="#24252A"/>
<path d="M17.9325 0.78772L9.7425 8.94397C9.53172 9.1535 9.24658 9.27111 8.94938 9.27111C8.65217 9.27111 8.36703 9.1535 8.15625 8.94397L0.039375 0.849595C0.0144222 0.941305 0.00119176 1.03581 0 1.13084V12.3808C0 12.6792 0.118526 12.9654 0.329505 13.1763C0.540483 13.3873 0.826631 13.5058 1.125 13.5058H16.875C17.1734 13.5058 17.4595 13.3873 17.6705 13.1763C17.8815 12.9654 18 12.6792 18 12.3808V1.13084C17.9955 1.01365 17.9727 0.897877 17.9325 0.78772ZM1.89563 12.3808H1.11375V11.5765L5.20312 7.52085L5.99625 8.31397L1.89563 12.3808ZM16.8638 12.3808H16.0763L11.9756 8.31397L12.7687 7.52085L16.8581 11.5765L16.8638 12.3808Z" fill="#24252A"/>
</svg>
